{
  "project_info": {
    "project_number": "571332121386",
    "firebase_url": "https://bolzen-ac653.firebaseio.com",
    "project_id": "bolzen-ac653",
    "storage_bucket": "bolzen-ac653.appspot.com"
  },
  "client": [
    {
      "client_info": {
        "mobilesdk_app_id": "1:571332121386:android:0b276bd7d42f20c1",
        "android_client_info": {
          "package_name": "fhdo.mobapp.bolzen"
        }
      },
      "oauth_client": [
        {
          "client_id": "571332121386-inh2jjveldlvs7fjk8fponam9l5h1jc0.apps.googleusercontent.com",
          "client_type": 1,
          "android_info": {
            "package_name": "fhdo.mobapp.bolzen",
            "certificate_hash": "71379fd900eef7f4216abb2dba7e0996b5a85076"
          }
        },
        {
          "client_id": "571332121386-s9iqgsidto0sk38dlcrfbfp7j693nng1.apps.googleusercontent.com",
          "client_type": 3
        },
        {
          "client_id": "571332121386-s9iqgsidto0sk38dlcrfbfp7j693nng1.apps.googleusercontent.com",
          "client_type": 3
        }
      ],
      "api_key": [
        {
          "current_key": "AIzaSyAYsaopiCw1TxnPUwGx2hV8TF8ShfomaWk"
        }
      ],
      "services": {
        "analytics_service": {
          "status": 1
        },
        "appinvite_service": {
          "status": 2,
          "other_platform_oauth_client": [
            {
              "client_id": "571332121386-s9iqgsidto0sk38dlcrfbfp7j693nng1.apps.googleusercontent.com",
              "client_type": 3
            }
          ]
        },
        "ads_service": {
          "status": 2
        }
      }
    }
  ],
  "configuration_version": "1"
}